int,string,int,int
Index,Type,Parameter1,Parameter2
900001,Starting,1,200103
900002,Bridge,1,0
900003,Point,3,200102
900004,Bridge,1,0
900005,Point,3,200101
900006,Bridge,1,0
900007,Bridge,1,0
900008,Bridge,1,0
900009,Point,3,200201
900010,Bridge,1,0
900011,Point,3,200202
900012,Bridge,1,0
900013,Starting,2,200203
