{
  "InventorySlotCount" : 6,
  "ItemSellGoldPriceRate":0.5,
  "ReviveMoveSpeed": 0.2,
  "ReviveMoveTime": 3,
  "RefreshShopTime" :5,
  "BattleInitialSoul": 2,
  "BattleBaseSoulPerSeconds": [0.3,0.3,0.3],
  "BattleBaseSoulPerSecondsTimeSection" : [0,120,180],
  "BattleMaxSoul" : 10,
  "RefreshSoulPrice":1,
  "StartTrophy" :0,
  "DefaultCharacter":100001,
  "DefaultDeck":[500001,500002,500103,500201,500401,501001,501031,501101],
  "DefaultSpell":[500001,500002,500103,500201,500401,501001,501031,501032,501101]
}