%YAML 1.1
%TAG !u! tag:unity3d.com,2011:
--- !u!687078895 &4343727234628468602
SpriteAtlas:
  m_ObjectHideFlags: 0
  m_CorrespondingSourceObject: {fileID: 0}
  m_PrefabInstance: {fileID: 0}
  m_PrefabAsset: {fileID: 0}
  m_Name: ItemAtals
  m_EditorData:
    serializedVersion: 2
    textureSettings:
      serializedVersion: 2
      anisoLevel: 1
      compressionQuality: 50
      maxTextureSize: 2048
      textureCompression: 0
      filterMode: 1
      generateMipMaps: 0
      readable: 0
      crunchedCompression: 0
      sRGB: 1
    platformSettings: []
    packingSettings:
      serializedVersion: 2
      padding: 4
      blockOffset: 1
      allowAlphaSplitting: 0
      enableRotation: 0
      enableTightPacking: 0
    variantMultiplier: 1
    packables:
    - {fileID: 102900000, guid: cebd92d128dc0114388fd88e10aad8ba, type: 3}
    totalSpriteSurfaceArea: 2541864
    bindAsDefault: 1
  m_MasterAtlas: {fileID: 0}
  m_PackedSprites:
  - {fileID: 21300000, guid: 0b6c5d003be8336429d23fbc29235f61, type: 3}
  - {fileID: 21300000, guid: 0b8af3109f0516f4d90cf243bff466e7, type: 3}
  - {fileID: 21300000, guid: 80fe8610fa8a8144f998f7a5ede1ac25, type: 3}
  - {fileID: 21300000, guid: 7468d7508b0ef7644af59a1f0eb562c7, type: 3}
  - {fileID: 21300000, guid: 0280eca0311f10f479eacb6da6571fd0, type: 3}
  - {fileID: 21300000, guid: cff1dad0208b66f409bcd958bf7f21a9, type: 3}
  - {fileID: 21300000, guid: 71b206019b88c3847bef7afc9e14c4eb, type: 3}
  - {fileID: 21300000, guid: 030b051109b69d04583619f564748191, type: 3}
  - {fileID: 21300000, guid: 0ca8ce41d4df8274d9dfeb3bc95b0414, type: 3}
  - {fileID: 21300000, guid: 937ced61f1c4c3e4db08b9affc0aa026, type: 3}
  - {fileID: 21300000, guid: 6d6ac871785a2ea4aaf3393dee9f7d53, type: 3}
  - {fileID: 21300000, guid: 9e3af881698586b49912b5e4c2e6b475, type: 3}
  - {fileID: 21300000, guid: 50aca99182acddf4bbf345d57a27fc0f, type: 3}
  - {fileID: 21300000, guid: 3df28d91a5496428f9506d0e3aad2905, type: 3}
  - {fileID: 21300000, guid: 0c2d51a1508aea845b208308e74904bb, type: 3}
  - {fileID: 21300000, guid: 5c6a12d1bf0087343b10afcdcbaf880e, type: 3}
  - {fileID: 21300000, guid: 7db263f1eb1278543a204a57c1c5fe63, type: 3}
  - {fileID: 21300000, guid: 905bfb626cf0fb548a3e5f372391c518, type: 3}
  - {fileID: 21300000, guid: ead5c672979919f499ba92366de1a574, type: 3}
  - {fileID: 21300000, guid: 38f291820f5d9074ea9fc790e64cdc2a, type: 3}
  - {fileID: 21300000, guid: a1638e92d682bff4da57d6af2b2391cd, type: 3}
  - {fileID: 21300000, guid: 15a5a003dd672cf4d9b1c5d8fe7339fe, type: 3}
  - {fileID: 21300000, guid: 3801a303bfe655447b179a602430b2f4, type: 3}
  - {fileID: 21300000, guid: 32d0080331b246d45aa68c4422b9dd54, type: 3}
  - {fileID: 21300000, guid: a6cb381365bd5d34285e947bf0371769, type: 3}
  - {fileID: 21300000, guid: 545d7573835391449b7c70ed02de6179, type: 3}
  - {fileID: 21300000, guid: a46f7da3d778a460a842eefe5c1d7523, type: 3}
  - {fileID: 21300000, guid: 61f306a49bf576c4eb15c64bbf97e2f6, type: 3}
  - {fileID: 21300000, guid: 809e5dc41eae0294bbac66c39786fdfe, type: 3}
  - {fileID: 21300000, guid: 50070ee46d3f3d5448358f45f1c2af36, type: 3}
  - {fileID: 21300000, guid: b66bae3587afbf74c91722d8341f9e9d, type: 3}
  - {fileID: 21300000, guid: ace178d5bd871544a999da5c38179457, type: 3}
  - {fileID: 21300000, guid: 4d0bf216f48a15641ad6068023a7230a, type: 3}
  - {fileID: 21300000, guid: 6592b916f86b19e428db6f6847c7b6dd, type: 3}
  - {fileID: 21300000, guid: ed9b13661d6d74d4cb949681a4478f38, type: 3}
  - {fileID: 21300000, guid: 1cdd68665f3ed0d4f9088ddb29ab5328, type: 3}
  - {fileID: 21300000, guid: 558a5886f3a3e5e49b3a4a655d9da71d, type: 3}
  - {fileID: 21300000, guid: d472fea672e5ae144bc2e795e9374622, type: 3}
  - {fileID: 21300000, guid: 01a57ad67aecbdc4b8775eb366435a1a, type: 3}
  - {fileID: 21300000, guid: 5f8c900722ad87a4fbe98ee6a35e10af, type: 3}
  - {fileID: 21300000, guid: f88402077860bc64ab8d29b1f2ae9388, type: 3}
  - {fileID: 21300000, guid: 027574079e6acbe4c83f4b0cc29cc154, type: 3}
  - {fileID: 21300000, guid: 2b0e6a17c3bc48241b1260e4a14726a3, type: 3}
  - {fileID: 21300000, guid: 34e96d27edb90a24cac65637b1a2d84c, type: 3}
  - {fileID: 21300000, guid: 4dd8bf27d3b588544a3a40e11854fce5, type: 3}
  - {fileID: 21300000, guid: 6e7100970e3f17948a689966db1bbdce, type: 3}
  - {fileID: 21300000, guid: fb8a94a7b6bfdfb4d842bfe2e4ed17cd, type: 3}
  - {fileID: 21300000, guid: 5d9ba4e7d0964044ea54abe409d81dfd, type: 3}
  - {fileID: 21300000, guid: 99e9bbe7d3716cb4b8addf9dbb1e7aa8, type: 3}
  - {fileID: 21300000, guid: 8452f938b024544458e0f2ab43cbfaf4, type: 3}
  - {fileID: 21300000, guid: 40589f5804b799542ba65ad62a56ec41, type: 3}
  - {fileID: 21300000, guid: cfd67a685ec818148a3e96309ad54ac9, type: 3}
  - {fileID: 21300000, guid: 522edcc8dc730a24f8aac8f352399c89, type: 3}
  - {fileID: 21300000, guid: 7fd2ddf882a6a2e4ab9f6f55f28c18d0, type: 3}
  - {fileID: 21300000, guid: 6a920d19f1064204b8baa704c396cc9e, type: 3}
  - {fileID: 21300000, guid: e79806594d07c39409240cf8be920afc, type: 3}
  - {fileID: 21300000, guid: 9632db698ef967b41b1b8e61b016e1d0, type: 3}
  - {fileID: 21300000, guid: e6a804793115b304a8386a36f96e4dea, type: 3}
  - {fileID: 21300000, guid: ebbae8991cd1ce84b9cc3a020530c188, type: 3}
  - {fileID: 21300000, guid: 072f721a76e8ee84eac889df7c374201, type: 3}
  - {fileID: 21300000, guid: b007c13a9337bee48841b0ff9d85795f, type: 3}
  - {fileID: 21300000, guid: e52ea25af699fd445b7046374f81a5b9, type: 3}
  - {fileID: 21300000, guid: f687735ac7287f34c8022b3d6bf009ea, type: 3}
  - {fileID: 21300000, guid: ebba794bf290ce9419e031df88aaddd2, type: 3}
  - {fileID: 21300000, guid: dd735d5b1b256ea49999fd951452f5f0, type: 3}
  - {fileID: 21300000, guid: dc41747b4ebb84e40bf59eca13b73704, type: 3}
  - {fileID: 21300000, guid: 0e94feabe78d99e48abf17aed83e89e0, type: 3}
  - {fileID: 21300000, guid: b7d7573c70a6fec4d96b251f56bd024a, type: 3}
  - {fileID: 21300000, guid: e1cb724c9e93a9d48ad078152d7d0a8e, type: 3}
  - {fileID: 21300000, guid: 4bc2846c01b51af4ebc2f2ca75c9e87c, type: 3}
  - {fileID: 21300000, guid: 36dd307c58a9bba408f3e67ea884e40b, type: 3}
  - {fileID: 21300000, guid: da8a639cdd4240140a07db050b5a9100, type: 3}
  - {fileID: 21300000, guid: 53cd03ac42ac4c64e9fc76949ae81300, type: 3}
  - {fileID: 21300000, guid: 7547c4bc4322a8d42ac1a3c920588aaf, type: 3}
  - {fileID: 21300000, guid: 7c46b1cc49c7906448de501223d17e27, type: 3}
  - {fileID: 21300000, guid: c37c2ddc805b0b04ca075cbbc2ba9804, type: 3}
  - {fileID: 21300000, guid: 10c68edcafa724346be3dc27e77fda95, type: 3}
  - {fileID: 21300000, guid: d84b6bec81a819f49b11cea473533e98, type: 3}
  - {fileID: 21300000, guid: 0cd2950d6795e3344aa15272e0cc441e, type: 3}
  - {fileID: 21300000, guid: 4d6d9b7deaef8784d8a071546122577a, type: 3}
  - {fileID: 21300000, guid: 02f150cdf4bd67548ab939b9c3b4a91d, type: 3}
  - {fileID: 21300000, guid: c90959fd347876945be2eb3355099d6f, type: 3}
  - {fileID: 21300000, guid: fc5b030e7fdb32142b75b11ab76621ab, type: 3}
  - {fileID: 21300000, guid: 8904248e5813f1245b0c67caad6d538e, type: 3}
  - {fileID: 21300000, guid: 8e5faedea53b3fd4ab16d5efd2b6ede3, type: 3}
  - {fileID: 21300000, guid: af8ae2eed88e82f4aa32528def115a90, type: 3}
  - {fileID: 21300000, guid: ab3fcfee75bb73d4288e5be55421796e, type: 3}
  - {fileID: 21300000, guid: 9471ba0fcc75f64489a3125de523e66f, type: 3}
  - {fileID: 21300000, guid: 625f07cf1a50b824bb50e3d8aa0552e8, type: 3}
  - {fileID: 21300000, guid: 25561def9b0d0af48ba67c1c8e352297, type: 3}
  - {fileID: 21300000, guid: cb9074ffce9d2c74e9da1cc5202eaec0, type: 3}
  m_PackedSpriteNamesToIndex:
  - item_300714
  - item_300215
  - item_300421
  - item_300201
  - item_300402
  - item_300724
  - item_300602
  - item_300211
  - item_300102
  - item_300403
  - item_300101
  - item_300105
  - item_300734
  - itemCardBack
  - item_300722
  - item_300221
  - item_300715
  - item_300412
  - item_300742
  - item_300755
  - item_300753
  - item_300754
  - item_300204
  - item_300425
  - item_300741
  - item_300245
  - itemCard
  - item_300732
  - item_300423
  - item_300731
  - item_300214
  - item_300405
  - item_300205
  - item_300003
  - item_300222
  - item_300603
  - item_300431
  - item_300735
  - item_300605
  - item_300721
  - item_300232
  - item_300434
  - item_300751
  - item_300212
  - item_300433
  - item_300415
  - item_300241
  - item_300001
  - item_300744
  - item_300244
  - item_300601
  - item_300234
  - item_300711
  - item_300242
  - item_300422
  - item_300103
  - item_300703
  - item_300231
  - item_300432
  - item_300414
  - item_300725
  - item_300002
  - item_300424
  - item_300233
  - item_300235
  - item_300713
  - item_300752
  - item_300203
  - item_300202
  - item_300411
  - item_300743
  - item_300225
  - item_300413
  - item_300733
  - item_300435
  - item_300712
  - item_300701
  - item_300745
  - item_300104
  - item_300604
  - item_300704
  - item_300213
  - item_300224
  - item_300401
  - item_300223
  - item_300404
  - item_300723
  - item_300106
  - item_300705
  - item_300702
  - item_300243
  m_Tag: ItemAtals
  m_IsVariant: 0
